{
    "models": [
	{
	    "object_type" : "Parfleche",
	    "tribe" : "Crow",
	    "id_title" : "GRTE 5062",
	    "sketchfab_id" : "8db7d268143c4b5d9394686c4f6890a3",
	    "image_name" : "5062.jpg",
	    "id": "5062"
	},{
	    "object_type" : "Boy's Vest",
	    "tribe" : "Sioux",
	    "id_title" : "GRTE 6151",
	    "sketchfab_id" : "1a05c8ae73ca4e1ea21b0190c2416310",
	    "image_name" : "6151.jpg",
	    "id" : "6151"
	},{
	    "object_type" : "Pot",
	    "tribe" : "",
	    "id_title" : "GRTE 5804",
	    "sketchfab_id" : "d46016c44f824484bd369c6b6a2b37be",
	    "image_name" : "5804.jpg",
	    "id" : "5804"
	},{
	    "object_type" : "Man's Vest",
	    "tribe" : "Sioux",
	    "id_title" : "GRTE 6174",
	    "sketchfab_id" : "5cc4ac1d3ded46d5a744c9eae68a30c9",
	    "image_name" : "6174_v2.jpg",
	    "id" : "6174"
	} ,{
	    "object_type" : "Moccasins",
	    "tribe" : "Blackfeet",
	    "id_title" : "GRTE 5195 Left",
	    "sketchfab_id" : "642f9385ab0b4b69b2bcd2f16c01bf3b",
	    "image_name" : "5195-left.jpg",
	    "id" : "5195L"
	},{
	    "object_type" : "Moccasins",
	    "tribe" : "Blackfeet",
	    "id_title" : "GRTE 5195 Right",
	    "sketchfab_id" : "8a25f8f1c8874b00aebb16813082d592",
	    "image_name" : "5195-right_v2.jpg",
	    "id" : "5195R"
	},{
	    "object_type" : "Saddle Blanket",
	    "tribe" : "Yankton/Sioux",
	    "id_title" : "GRTE 5205",
	    "sketchfab_id" : "5a4b4730b25a4d76bfe5d334f826e13c",
	    "image_name" : "saddle_blanket.jpg",
	    "id" : "5205"
	}, {
	    "object_type" : "Basket, ca. 1875-1900",
	    "tribe" : "Maidu",
	    "id_title" : "GRTE 5702",
	    "sketchfab_id" : "e0b91a52381b4e2ea903e58a0fd5d246",
	    "image_name" : "basket.jpg",
	    "id" : "5702"
	},{
	    "object_type" : "Moccasin",
	    "tribe" :"Cheyenne",
	    "id_title" : "GRTE 5103 Right",
	    "sketchfab_id" : "f778c8366665461fa656094a0dabb113",
	    "image_name" : "5103-right_v2.jpg",
	    "id" : "5103R"
	},{
	    "image_name" : "pouch.jpg",
	    "sketchfab_id" : "aa8375d5a63d4078907ef41bbde4ed9d",
	    "object_type" : "Pouch",
	    "tribe" : "Sioux",
	    "id_title" : "GRTE 5240",
	    "id" : "5240"
	},{		  
	    "image_name" : "5063.jpg",
	    "sketchfab_id" : "0d6ccb13c846407ea3a506e0842903ee",
	    "object_type" : "Saddle Bag",
	    "tribe" : "Arapaho",
	    "id_title" : "GRTE 5063",
	    "id" : "5063"
	},{		  
	    "image_name" : "6131.jpg",
	    "sketchfab_id" : "6a56b082e0d2420f829b01c60c4f0609",
	    "object_type" : "Pouch",
	    "tribe" : "",
	    "id_title" : "GRTE 6131",
	    "id" : "6131"
	},{		  
	    "image_name" : "5110-right.jpg",
	    "sketchfab_id" : "a69cab68f1634392938ea879f1da6f7a",
	    "object_type" : "Moccasin",
	    "tribe" : "Sioux",
	    "id_title" : "GRTE 5110 Right",
	    "id" : "5110R"
	},{
	    "image_name" : "5110-left.jpg",
	    "sketchfab_id" : "ad1990f0ed984cdcaa044ef5b84f1492",
	    "object_type" : "Moccasin",
	    "tribe" :"Sioux",
	    "id_title" : "GRTE 5110 Left",
	    "id" : "5110L"
	},{
	    "image_name" : "6168_v2.jpg",
	    "sketchfab_id" : "65970cac04ec43619f8317daeb809358",
	    "object_type" : "Boy's Coat",
	    "tribe" : "Cheyenne",
	    "id_title" : "GRTE 6168",
	    "id" : "6168"
	},{
	    "image_name" : "5104-left.jpg",
	    "sketchfab_id" : "a0e8af4494224dd0ac1d0f0b2010ae8b",
	    "object_type" : "Moccassin",
	    "tribe" : "Arapaho",
	    "id_title" : "GRTE 5104 Left",
	    "id" : "5104L"
	},{
	    "image_name" : "5104-right.jpg",
	    "sketchfab_id" : "1a2bf03d6f5d4a7fa29c0cdd0aa22950",
	    "object_type" : "Moccassin",
	    "tribe" : "Arapaho",
	    "id_title" : "GRTE 5104 Right",
	    "id" : "5104R"
	},{
	    "image_name" : "5116-left.jpg",
	    "sketchfab_id" : "bc3dbbcb8b6b4b7a9c33000192616308",
	    "object_type" : "Left Moccasin",
	    "tribe" : "",
	    "id_title" : "GRTE 5116 Left",
	    "id" : "5116L"
	},{
	    "image_name" : "5055.jpg",
	    "sketchfab_id" : "b2c1eb2020554dcdbd8a82034ae6e62e",
	    "object_type" : "Parfleche Trunk",
	    "tribe" : "Sioux",
	    "id_title" : "GRTE 5055",
	    "id" : "5055"
	},{      
	    "image_name" : "6170.jpg",
	    "sketchfab_id" : "aa8bde0b1d7246e18230d40616e32010",
	    "object_type" : "Jacket",
	    "tribe" : "Sioux",
	    "id_title" : "GRTE 6170",
	    "id" : "6170"
	},{      
	    "image_name" : "5194-left.jpg",
	    "sketchfab_id" : "429d173bd5a643fea369ecd3e30f80e6",
	    "object_type" : "Moccasin",
	    "tribe" : "Blackfeet",
	    "id_title" : "GRTE 5194 Left",
	    "id" : "5194L"
	},{
	    "image_name" : "6165_v2.jpg",
	    "sketchfab_id" : "1ffe6b6a49494e788c4b138b88fce235",
	    "object_type" : "Man's Jacket",
	    "tribe" : "Sioux", 
	    "id_title" : "GRTE 6165",
	    "id" : "6165"
	},{
	    "image_name" : "5144_v2.jpg",
	    "sketchfab_id" : "86c52755ecb94c0b9c5fc627a788f504",
	    "object_type" : "Beadwork",
	    "tribe" : "",
	    "id_title" : "GRTE 5144 Right",
	    "id" : "5144R"
	},{
	    "image_name" : "5144-left.jpg",
	    "sketchfab_id" : "9b4babf652da470fb844a3fa96d73356",
	    "object_type" : "Beadwork",
	    "tribe" : "",
	    "id_title" : "GRTE 5144 Left",
	    "id" : "5144L"
	},{
	    "image_name" : "5268.jpg",
	    "sketchfab_id" : "afedf353eff24b0a841e8d17bc1bad2c",
	    "object_type" : "Beadwork Pouch",
	    "tribe" : "",
	    "id_title" : "GRTE 5268",
	    "id" : "5268"
	},{
	    "image_name" : "5131-left.jpg",
	    "sketchfab_id" : "7a9ecedb1fe945668c5ae6bc9ff29615",
	    "object_type" : "Moccasin",
	    "tribe" : "",
	    "id_title" : "GRTE 5131 Left",
	    "id" : "5131L"
	},{
	    "image_name" : "5131-right.jpg",
	    "sketchfab_id" : "b644948f395342a3967739a9df8f1dee",
	    "object_type" : "Moccasin",
	    "tribe" : "",
	    "id_title" : "GRTE 5131 Right",
	    "id" : "5131R"
	},{
	    "image_name" : "5118-right.jpg",
	    "sketchfab_id" : "5d1f371af9594e058cb75c07c29013f0",
	    "object_type" : "Moccasin",
	    "tribe" : "",
	    "id_title" : "GRTE 5118 Right",
	    "id" : "5118R"
	},{
	    "image_name" : "5118_v2.jpg",
	    "sketchfab_id" : "31a3c3cf9e714e87a2bbe3ae73ab1bb4",
	    "object_type" : "Moccasin",
	    "tribe" : "",
	    "id_title" : "GRTE 5118 Left",
	    "id" : "5118L"
	},{
	    "image_name" : "5136-left.jpg",
	    "sketchfab_id" : "40db6eb6879748989f7fd9deb5083cb9",
	    "object_type" : "Child's Moccasin",
	    "tribe" : "Cheyenne",
	    "id_title" : "GRTE 5136 Left",
	    "id" : "5136L"
	},{
	    "object_type" : "Child's Moccasin",
	    "tribe" : "Cheyenne",
	    "id_title" : "GRTE 5136 Right",
	    "sketchfab_id" : "6f48e263d3804e66b82e4ac1acb0f75f",
	    "image_name" : "5136-right-v2.jpg",
	    "id" : "5136R"

	},{
	    "image_name" : "5192-right.jpg",
	    "sketchfab_id" : "6dff7b7c5ea647f39bc3dc49e9b5e616",
	    "object_type" : "Girl's Moccasin",
	    "tribe" : "Crow",
	    "id_title" : "GRTE 5192 Right",
	    "id" : "5192R"
	},{
	    "image_name" : "5192-left.jpg",
	    "sketchfab_id" : "9853b266b25a4f2c8698a8f018285f11",
	    "object_type" : "Girl's Moccasin",
	    "tribe" : "Crow",
	    "id_title" : "GRTE 5192 Left",
	    "id" : "5192L"
	},{
	    "image_name" : "5094-left.jpg",
	    "sketchfab_id" : "f2709f5655a3410a909c6ec7ec63f561",
	    "object_type" : "Moccasin",
	    "tribe" : "Arapaho",
	    "id_title" : "GRTE 5094 Left",
	    "id" : "5094L"
	},{
	    "image_name" : "5069.jpg",
	    "sketchfab_id" : "6e81ba40f00f49b886db7de1930ba78f",
	    "object_type" : "Women's Pouch",
	    "tribe" : "Blackfeet",
	    "id_title" : "GRTE 5069",
	    "id" : "5069"
	},{
	    "image_name" : "5095-right.jpg",
	    "sketchfab_id" : "7e9dc1fc2e2c4fe4970a680ea501f309",
	    "object_type" : "Moccasin",
	    "tribe" : "Sioux",
	    "id_title" : "GRTE 5095 Right",
	    "id" : "5095R"
	},{
	    "image_name" : "5095-left.jpg",
	    "sketchfab_id" : "3892cb8701dd4c91b5e37e7c32e1f6bf",
	    "object_type" : "Moccasin",
	    "tribe" : "Sioux",
	    "id_title" : "GRTE 5095 Left",
	    "id" : "5095L"
	},{
	    "image_name" : "6144.jpg",
	    "sketchfab_id" : "c8c865d1e6d5478b87f566406f81b863",
	    "object_type" : "Pouch",
	    "tribe" : "",
	    "id_title" : "GRTE 6144",
	    "id" : "6144"
	},{
	    "image_name" : "6231.jpg",
	    "sketchfab_id" : "50d33d0d886540c99da4af624b4b9c4e",
	    "object_type" : "Pouch",
	    "tribe" : "",
	    "id_title" : "GRTE 6231",
	    "id" : "6231"
	},{
	    "image_name" : "5120_left.jpg",
	    "sketchfab_id" : "eea1eea081864b89b478ff1e1c99ce96",
	    "object_type" : "Moccasin",
	    "tribe" : "",
	    "id_title" : "GRTE 5120 Left",
	    "id" : "5120L"
	},{
	    "image_name" : "5120_right.jpg",
	    "sketchfab_id" : "e27e79772732438db95f7c3766a20b8e",
	    "object_type" : "Moccasin",
	    "tribe" : "",
	    "id_title" : "GRTE 5120 Right",
	    "id" : "5120R"
	},{
	    "image_name" : "5430.jpg",
	    "sketchfab_id" : "c5d3e029c9004278bf646797a7e61746",
	    "object_type" : "Headcover",
	    "tribe" : "",
	    "id_title" : "GRTE 5430",
	    "id" : "5430"
	}	
    ]
}
